%YAML 1.1
%TAG !u! tag:unity3d.com,2011:
--- !u!29 &1
OcclusionCullingSettings:
  m_ObjectHideFlags: 0
  serializedVersion: 2
  m_OcclusionBakeSettings:
    smallestOccluder: 5
    smallestHole: 0.25
    backfaceThreshold: 100
  m_SceneGUID: 00000000000000000000000000000000
  m_OcclusionCullingData: {fileID: 0}
--- !u!104 &2
RenderSettings:
  m_ObjectHideFlags: 0
  serializedVersion: 9
  m_Fog: 0
  m_FogColor: {r: 0.5, g: 0.5, b: 0.5, a: 1}
  m_FogMode: 3
  m_FogDensity: 0.01
  m_LinearFogStart: 0
  m_LinearFogEnd: 300
  m_AmbientSkyColor: {r: 0.212, g: 0.227, b: 0.259, a: 1}
  m_AmbientEquatorColor: {r: 0.114, g: 0.125, b: 0.133, a: 1}
  m_AmbientGroundColor: {r: 0.047, g: 0.043, b: 0.035, a: 1}
  m_AmbientIntensity: 1
  m_AmbientMode: 0
  m_SubtractiveShadowColor: {r: 0.42, g: 0.478, b: 0.627, a: 1}
  m_SkyboxMaterial: {fileID: 10304, guid: 0000000000000000f000000000000000, type: 0}
  m_HaloStrength: 0.5
  m_FlareStrength: 1
  m_FlareFadeSpeed: 3
  m_HaloTexture: {fileID: 0}
  m_SpotCookie: {fileID: 10001, guid: 0000000000000000e000000000000000, type: 0}
  m_DefaultReflectionMode: 0
  m_DefaultReflectionResolution: 128
  m_ReflectionBounces: 1
  m_ReflectionIntensity: 1
  m_CustomReflection: {fileID: 0}
  m_Sun: {fileID: 1817236227}
  m_IndirectSpecularColor: {r: 0.18384448, g: 0.22859347, b: 0.30081007, a: 1}
  m_UseRadianceAmbientProbe: 0
--- !u!157 &3
LightmapSettings:
  m_ObjectHideFlags: 0
  serializedVersion: 12
  m_GIWorkflowMode: 0
  m_GISettings:
    serializedVersion: 2
    m_BounceScale: 1
    m_IndirectOutputScale: 1
    m_AlbedoBoost: 1
    m_EnvironmentLightingMode: 0
    m_EnableBakedLightmaps: 1
    m_EnableRealtimeLightmaps: 0
  m_LightmapEditorSettings:
    serializedVersion: 12
    m_Resolution: 2
    m_BakeResolution: 40
    m_AtlasSize: 1024
    m_AO: 0
    m_AOMaxDistance: 1
    m_CompAOExponent: 1
    m_CompAOExponentDirect: 0
    m_ExtractAmbientOcclusion: 0
    m_Padding: 2
    m_LightmapParameters: {fileID: 0}
    m_LightmapsBakeMode: 1
    m_TextureCompression: 1
    m_FinalGather: 0
    m_FinalGatherFiltering: 1
    m_FinalGatherRayCount: 256
    m_ReflectionCompression: 2
    m_MixedBakeMode: 2
    m_BakeBackend: 1
    m_PVRSampling: 1
    m_PVRDirectSampleCount: 32
    m_PVRSampleCount: 512
    m_PVRBounces: 2
    m_PVREnvironmentSampleCount: 256
    m_PVREnvironmentReferencePointCount: 2048
    m_PVRFilteringMode: 1
    m_PVRDenoiserTypeDirect: 1
    m_PVRDenoiserTypeIndirect: 1
    m_PVRDenoiserTypeAO: 1
    m_PVRFilterTypeDirect: 0
    m_PVRFilterTypeIndirect: 0
    m_PVRFilterTypeAO: 0
    m_PVREnvironmentMIS: 1
    m_PVRCulling: 1
    m_PVRFilteringGaussRadiusDirect: 1
    m_PVRFilteringGaussRadiusIndirect: 5
    m_PVRFilteringGaussRadiusAO: 2
    m_PVRFilteringAtrousPositionSigmaDirect: 0.5
    m_PVRFilteringAtrousPositionSigmaIndirect: 2
    m_PVRFilteringAtrousPositionSigmaAO: 1
    m_ExportTrainingData: 0
    m_TrainingDataDestination: TrainingData
    m_LightProbeSampleCountMultiplier: 4
  m_LightingDataAsset: {fileID: 0}
  m_LightingSettings: {fileID: 4890085278179872738, guid: 52c7e53082e31a0448b93ad2696edbc9, type: 2}
--- !u!196 &4
NavMeshSettings:
  serializedVersion: 2
  m_ObjectHideFlags: 0
  m_BuildSettings:
    serializedVersion: 2
    agentTypeID: 0
    agentRadius: 0.5
    agentHeight: 2
    agentSlope: 45
    agentClimb: 0.4
    ledgeDropHeight: 0
    maxJumpAcrossDistance: 0
    minRegionArea: 2
    manualCellSize: 0
    cellSize: 0.16666667
    manualTileSize: 0
    tileSize: 256
    accuratePlacement: 0
    maxJobWorkers: 0
    preserveTilesOutsideBounds: 0
    debug:
      m_Flags: 0
  m_NavMeshData: {fileID: 0}
--- !u!1 &115120027
GameObject:
  m_ObjectHideFlags: 0
  m_CorrespondingSourceObject: {fileID: 0}
  m_PrefabInstance: {fileID: 0}
  m_PrefabAsset: {fileID: 0}
  serializedVersion: 6
  m_Component:
  - component: {fileID: 115120029}
  - component: {fileID: 115120028}
  m_Layer: 0
  m_Name: InputSystemManager
  m_TagString: Untagged
  m_Icon: {fileID: 0}
  m_NavMeshLayer: 0
  m_StaticEditorFlags: 0
  m_IsActive: 1
--- !u!114 &115120028
MonoBehaviour:
  m_ObjectHideFlags: 0
  m_CorrespondingSourceObject: {fileID: 0}
  m_PrefabInstance: {fileID: 0}
  m_PrefabAsset: {fileID: 0}
  m_GameObject: {fileID: 115120027}
  m_Enabled: 1
  m_EditorHideFlags: 0
  m_Script: {fileID: 11500000, guid: 621567455fd1c4ceb811cc8a00b6a1a5, type: 3}
  m_Name: 
  m_EditorClassIdentifier: 
  m_NotificationBehavior: 2
  m_MaxPlayerCount: 2
  m_AllowJoining: 1
  m_JoinBehavior: 0
  m_PlayerJoinedEvent:
    m_PersistentCalls:
      m_Calls: []
  m_PlayerLeftEvent:
    m_PersistentCalls:
      m_Calls: []
  m_JoinAction:
    m_UseReference: 0
    m_Action:
      m_Name: 
      m_Type: 0
      m_ExpectedControlType: 
      m_Id: 
      m_Processors: 
      m_Interactions: 
      m_SingletonActionBindings: []
      m_Flags: 0
    m_Reference: {fileID: 0}
  m_PlayerPrefab: {fileID: 1613356513535107597, guid: c68633e551c8a734580478dbe7f27f82, type: 3}
  m_SplitScreen: 1
  m_MaintainAspectRatioInSplitScreen: 0
  m_FixedNumberOfSplitScreens: -1
  m_SplitScreenRect:
    serializedVersion: 2
    x: 0
    y: 0
    width: 1
    height: 1
--- !u!4 &115120029
Transform:
  m_ObjectHideFlags: 0
  m_CorrespondingSourceObject: {fileID: 0}
  m_PrefabInstance: {fileID: 0}
  m_PrefabAsset: {fileID: 0}
  m_GameObject: {fileID: 115120027}
  m_LocalRotation: {x: 0, y: 0, z: 0, w: 1}
  m_LocalPosition: {x: 0, y: -12.08, z: 33.7}
  m_LocalScale: {x: 1, y: 1, z: 1}
  m_ConstrainProportionsScale: 0
  m_Children: []
  m_Father: {fileID: 0}
  m_RootOrder: 17
  m_LocalEulerAnglesHint: {x: 0, y: 0, z: 0}
--- !u!1 &1817236226
GameObject:
  m_ObjectHideFlags: 0
  m_CorrespondingSourceObject: {fileID: 0}
  m_PrefabInstance: {fileID: 0}
  m_PrefabAsset: {fileID: 0}
  serializedVersion: 6
  m_Component:
  - component: {fileID: 1817236228}
  - component: {fileID: 1817236227}
  m_Layer: 0
  m_Name: Directional Light
  m_TagString: Untagged
  m_Icon: {fileID: 0}
  m_NavMeshLayer: 0
  m_StaticEditorFlags: 0
  m_IsActive: 1
--- !u!108 &1817236227
Light:
  m_ObjectHideFlags: 0
  m_CorrespondingSourceObject: {fileID: 0}
  m_PrefabInstance: {fileID: 0}
  m_PrefabAsset: {fileID: 0}
  m_GameObject: {fileID: 1817236226}
  m_Enabled: 1
  serializedVersion: 10
  m_Type: 1
  m_Shape: 0
  m_Color: {r: 1, g: 0.95686275, b: 0.8392157, a: 1}
  m_Intensity: 1.6
  m_Range: 10
  m_SpotAngle: 30
  m_InnerSpotAngle: 21.80208
  m_CookieSize: 10
  m_Shadows:
    m_Type: 2
    m_Resolution: -1
    m_CustomResolution: -1
    m_Strength: 1
    m_Bias: 0.2
    m_NormalBias: 0.4
    m_NearPlane: 0.2
    m_CullingMatrixOverride:
      e00: 1
      e01: 0
      e02: 0
      e03: 0
      e10: 0
      e11: 1
      e12: 0
      e13: 0
      e20: 0
      e21: 0
      e22: 1
      e23: 0
      e30: 0
      e31: 0
      e32: 0
      e33: 1
    m_UseCullingMatrixOverride: 0
  m_Cookie: {fileID: 0}
  m_DrawHalo: 0
  m_Flare: {fileID: 0}
  m_RenderMode: 0
  m_CullingMask:
    serializedVersion: 2
    m_Bits: 4294967295
  m_RenderingLayerMask: 1
  m_Lightmapping: 4
  m_LightShadowCasterMode: 0
  m_AreaSize: {x: 1, y: 1}
  m_BounceIntensity: 1
  m_ColorTemperature: 6570
  m_UseColorTemperature: 0
  m_BoundingSphereOverride: {x: 0, y: 0, z: 0, w: 0}
  m_UseBoundingSphereOverride: 0
  m_UseViewFrustumForShadowCasterCull: 1
  m_ShadowRadius: 0
  m_ShadowAngle: 0
--- !u!4 &1817236228
Transform:
  m_ObjectHideFlags: 0
  m_CorrespondingSourceObject: {fileID: 0}
  m_PrefabInstance: {fileID: 0}
  m_PrefabAsset: {fileID: 0}
  m_GameObject: {fileID: 1817236226}
  m_LocalRotation: {x: 0.21839803, y: 0.3573113, z: -0.09100105, w: 0.90352076}
  m_LocalPosition: {x: 0, y: -9.08, z: 33.7}
  m_LocalScale: {x: 1, y: 1, z: 1}
  m_ConstrainProportionsScale: 0
  m_Children: []
  m_Father: {fileID: 0}
  m_RootOrder: 15
  m_LocalEulerAnglesHint: {x: 27.367, y: 43.023003, z: -0.54}
--- !u!1 &2086118562
GameObject:
  m_ObjectHideFlags: 0
  m_CorrespondingSourceObject: {fileID: 0}
  m_PrefabInstance: {fileID: 0}
  m_PrefabAsset: {fileID: 0}
  serializedVersion: 6
  m_Component:
  - component: {fileID: 2086118565}
  - component: {fileID: 2086118564}
  - component: {fileID: 2086118563}
  m_Layer: 0
  m_Name: EventSystem
  m_TagString: Untagged
  m_Icon: {fileID: 0}
  m_NavMeshLayer: 0
  m_StaticEditorFlags: 0
  m_IsActive: 1
--- !u!114 &2086118563
MonoBehaviour:
  m_ObjectHideFlags: 0
  m_CorrespondingSourceObject: {fileID: 0}
  m_PrefabInstance: {fileID: 0}
  m_PrefabAsset: {fileID: 0}
  m_GameObject: {fileID: 2086118562}
  m_Enabled: 1
  m_EditorHideFlags: 0
  m_Script: {fileID: 11500000, guid: 4f231c4fb786f3946a6b90b886c48677, type: 3}
  m_Name: 
  m_EditorClassIdentifier: 
  m_SendPointerHoverToParent: 1
  m_HorizontalAxis: Horizontal
  m_VerticalAxis: Vertical
  m_SubmitButton: Submit
  m_CancelButton: Cancel
  m_InputActionsPerSecond: 10
  m_RepeatDelay: 0.5
  m_ForceModuleActive: 0
--- !u!114 &2086118564
MonoBehaviour:
  m_ObjectHideFlags: 0
  m_CorrespondingSourceObject: {fileID: 0}
  m_PrefabInstance: {fileID: 0}
  m_PrefabAsset: {fileID: 0}
  m_GameObject: {fileID: 2086118562}
  m_Enabled: 1
  m_EditorHideFlags: 0
  m_Script: {fileID: 11500000, guid: 76c392e42b5098c458856cdf6ecaaaa1, type: 3}
  m_Name: 
  m_EditorClassIdentifier: 
  m_FirstSelected: {fileID: 0}
  m_sendNavigationEvents: 1
  m_DragThreshold: 10
--- !u!4 &2086118565
Transform:
  m_ObjectHideFlags: 0
  m_CorrespondingSourceObject: {fileID: 0}
  m_PrefabInstance: {fileID: 0}
  m_PrefabAsset: {fileID: 0}
  m_GameObject: {fileID: 2086118562}
  m_LocalRotation: {x: 0, y: 0, z: 0, w: 1}
  m_LocalPosition: {x: 0, y: 0, z: 0}
  m_LocalScale: {x: 1, y: 1, z: 1}
  m_ConstrainProportionsScale: 0
  m_Children: []
  m_Father: {fileID: 0}
  m_RootOrder: 18
  m_LocalEulerAnglesHint: {x: 0, y: 0, z: 0}
--- !u!1001 &69159637753338265
PrefabInstance:
  m_ObjectHideFlags: 0
  serializedVersion: 2
  m_Modification:
    m_TransformParent: {fileID: 0}
    m_Modifications:
    - target: {fileID: 2834320985844681631, guid: 2953943eb6ab8e24081b12ab3f22a4b3, type: 3}
      propertyPath: m_RootOrder
      value: 9
      objectReference: {fileID: 0}
    - target: {fileID: 2834320985844681631, guid: 2953943eb6ab8e24081b12ab3f22a4b3, type: 3}
      propertyPath: m_LocalPosition.x
      value: 0
      objectReference: {fileID: 0}
    - target: {fileID: 2834320985844681631, guid: 2953943eb6ab8e24081b12ab3f22a4b3, type: 3}
      propertyPath: m_LocalPosition.y
      value: -12.08
      objectReference: {fileID: 0}
    - target: {fileID: 2834320985844681631, guid: 2953943eb6ab8e24081b12ab3f22a4b3, type: 3}
      propertyPath: m_LocalPosition.z
      value: 33.7
      objectReference: {fileID: 0}
    - target: {fileID: 2834320985844681631, guid: 2953943eb6ab8e24081b12ab3f22a4b3, type: 3}
      propertyPath: m_LocalRotation.w
      value: 1
      objectReference: {fileID: 0}
    - target: {fileID: 2834320985844681631, guid: 2953943eb6ab8e24081b12ab3f22a4b3, type: 3}
      propertyPath: m_LocalRotation.x
      value: 0.000000021855694
      objectReference: {fileID: 0}
    - target: {fileID: 2834320985844681631, guid: 2953943eb6ab8e24081b12ab3f22a4b3, type: 3}
      propertyPath: m_LocalRotation.y
      value: -0
      objectReference: {fileID: 0}
    - target: {fileID: 2834320985844681631, guid: 2953943eb6ab8e24081b12ab3f22a4b3, type: 3}
      propertyPath: m_LocalRotation.z
      value: -0
      objectReference: {fileID: 0}
    - target: {fileID: 2834320985844681631, guid: 2953943eb6ab8e24081b12ab3f22a4b3, type: 3}
      propertyPath: m_LocalEulerAnglesHint.x
      value: 0
      objectReference: {fileID: 0}
    - target: {fileID: 2834320985844681631, guid: 2953943eb6ab8e24081b12ab3f22a4b3, type: 3}
      propertyPath: m_LocalEulerAnglesHint.y
      value: 0
      objectReference: {fileID: 0}
    - target: {fileID: 2834320985844681631, guid: 2953943eb6ab8e24081b12ab3f22a4b3, type: 3}
      propertyPath: m_LocalEulerAnglesHint.z
      value: 0
      objectReference: {fileID: 0}
    - target: {fileID: 3179074353417769253, guid: 2953943eb6ab8e24081b12ab3f22a4b3, type: 3}
      propertyPath: m_Name
      value: oval_mod_pitwall
      objectReference: {fileID: 0}
    - target: {fileID: 3179074353417769253, guid: 2953943eb6ab8e24081b12ab3f22a4b3, type: 3}
      propertyPath: m_IsActive
      value: 1
      objectReference: {fileID: 0}
    m_RemovedComponents: []
  m_SourcePrefab: {fileID: 100100000, guid: 2953943eb6ab8e24081b12ab3f22a4b3, type: 3}
--- !u!1001 &604413636027402992
PrefabInstance:
  m_ObjectHideFlags: 0
  serializedVersion: 2
  m_Modification:
    m_TransformParent: {fileID: 0}
    m_Modifications:
    - target: {fileID: 5182243630922678501, guid: 06d347a4ad00ae943995b10715a3cd1a, type: 3}
      propertyPath: m_RootOrder
      value: 3
      objectReference: {fileID: 0}
    - target: {fileID: 5182243630922678501, guid: 06d347a4ad00ae943995b10715a3cd1a, type: 3}
      propertyPath: m_LocalPosition.x
      value: 0
      objectReference: {fileID: 0}
    - target: {fileID: 5182243630922678501, guid: 06d347a4ad00ae943995b10715a3cd1a, type: 3}
      propertyPath: m_LocalPosition.y
      value: -12.08
      objectReference: {fileID: 0}
    - target: {fileID: 5182243630922678501, guid: 06d347a4ad00ae943995b10715a3cd1a, type: 3}
      propertyPath: m_LocalPosition.z
      value: 33.7
      objectReference: {fileID: 0}
    - target: {fileID: 5182243630922678501, guid: 06d347a4ad00ae943995b10715a3cd1a, type: 3}
      propertyPath: m_LocalRotation.w
      value: 1
      objectReference: {fileID: 0}
    - target: {fileID: 5182243630922678501, guid: 06d347a4ad00ae943995b10715a3cd1a, type: 3}
      propertyPath: m_LocalRotation.x
      value: 0
      objectReference: {fileID: 0}
    - target: {fileID: 5182243630922678501, guid: 06d347a4ad00ae943995b10715a3cd1a, type: 3}
      propertyPath: m_LocalRotation.y
      value: 0
      objectReference: {fileID: 0}
    - target: {fileID: 5182243630922678501, guid: 06d347a4ad00ae943995b10715a3cd1a, type: 3}
      propertyPath: m_LocalRotation.z
      value: 0
      objectReference: {fileID: 0}
    - target: {fileID: 5182243630922678501, guid: 06d347a4ad00ae943995b10715a3cd1a, type: 3}
      propertyPath: m_LocalEulerAnglesHint.x
      value: 0
      objectReference: {fileID: 0}
    - target: {fileID: 5182243630922678501, guid: 06d347a4ad00ae943995b10715a3cd1a, type: 3}
      propertyPath: m_LocalEulerAnglesHint.y
      value: 0
      objectReference: {fileID: 0}
    - target: {fileID: 5182243630922678501, guid: 06d347a4ad00ae943995b10715a3cd1a, type: 3}
      propertyPath: m_LocalEulerAnglesHint.z
      value: 0
      objectReference: {fileID: 0}
    - target: {fileID: 5521650142439873119, guid: 06d347a4ad00ae943995b10715a3cd1a, type: 3}
      propertyPath: m_Name
      value: oval_mod_walls
      objectReference: {fileID: 0}
    - target: {fileID: 5521650142439873119, guid: 06d347a4ad00ae943995b10715a3cd1a, type: 3}
      propertyPath: m_IsActive
      value: 1
      objectReference: {fileID: 0}
    m_RemovedComponents: []
  m_SourcePrefab: {fileID: 100100000, guid: 06d347a4ad00ae943995b10715a3cd1a, type: 3}
--- !u!1001 &799783191498407218
PrefabInstance:
  m_ObjectHideFlags: 0
  serializedVersion: 2
  m_Modification:
    m_TransformParent: {fileID: 0}
    m_Modifications:
    - target: {fileID: 7071668861833630463, guid: 95fa7fc8bfed17d498b877fadc1697fc, type: 3}
      propertyPath: m_Name
      value: oval_mod_trees
      objectReference: {fileID: 0}
    - target: {fileID: 7071668861833630463, guid: 95fa7fc8bfed17d498b877fadc1697fc, type: 3}
      propertyPath: m_IsActive
      value: 1
      objectReference: {fileID: 0}
    - target: {fileID: 7595406466165016645, guid: 95fa7fc8bfed17d498b877fadc1697fc, type: 3}
      propertyPath: m_RootOrder
      value: 2
      objectReference: {fileID: 0}
    - target: {fileID: 7595406466165016645, guid: 95fa7fc8bfed17d498b877fadc1697fc, type: 3}
      propertyPath: m_LocalPosition.x
      value: 0
      objectReference: {fileID: 0}
    - target: {fileID: 7595406466165016645, guid: 95fa7fc8bfed17d498b877fadc1697fc, type: 3}
      propertyPath: m_LocalPosition.y
      value: -12.08
      objectReference: {fileID: 0}
    - target: {fileID: 7595406466165016645, guid: 95fa7fc8bfed17d498b877fadc1697fc, type: 3}
      propertyPath: m_LocalPosition.z
      value: 33.7
      objectReference: {fileID: 0}
    - target: {fileID: 7595406466165016645, guid: 95fa7fc8bfed17d498b877fadc1697fc, type: 3}
      propertyPath: m_LocalRotation.w
      value: 1
      objectReference: {fileID: 0}
    - target: {fileID: 7595406466165016645, guid: 95fa7fc8bfed17d498b877fadc1697fc, type: 3}
      propertyPath: m_LocalRotation.x
      value: 0
      objectReference: {fileID: 0}
    - target: {fileID: 7595406466165016645, guid: 95fa7fc8bfed17d498b877fadc1697fc, type: 3}
      propertyPath: m_LocalRotation.y
      value: 0
      objectReference: {fileID: 0}
    - target: {fileID: 7595406466165016645, guid: 95fa7fc8bfed17d498b877fadc1697fc, type: 3}
      propertyPath: m_LocalRotation.z
      value: 0
      objectReference: {fileID: 0}
    - target: {fileID: 7595406466165016645, guid: 95fa7fc8bfed17d498b877fadc1697fc, type: 3}
      propertyPath: m_LocalEulerAnglesHint.x
      value: 0
      objectReference: {fileID: 0}
    - target: {fileID: 7595406466165016645, guid: 95fa7fc8bfed17d498b877fadc1697fc, type: 3}
      propertyPath: m_LocalEulerAnglesHint.y
      value: 0
      objectReference: {fileID: 0}
    - target: {fileID: 7595406466165016645, guid: 95fa7fc8bfed17d498b877fadc1697fc, type: 3}
      propertyPath: m_LocalEulerAnglesHint.z
      value: 0
      objectReference: {fileID: 0}
    m_RemovedComponents: []
  m_SourcePrefab: {fileID: 100100000, guid: 95fa7fc8bfed17d498b877fadc1697fc, type: 3}
--- !u!1001 &809996859349587522
PrefabInstance:
  m_ObjectHideFlags: 0
  serializedVersion: 2
  m_Modification:
    m_TransformParent: {fileID: 0}
    m_Modifications:
    - target: {fileID: 8248137563624326109, guid: 2b742cea3010f98448c0976eb0724a22, type: 3}
      propertyPath: m_Name
      value: oval_mod_turnsigns
      objectReference: {fileID: 0}
    - target: {fileID: 8248137563624326109, guid: 2b742cea3010f98448c0976eb0724a22, type: 3}
      propertyPath: m_IsActive
      value: 1
      objectReference: {fileID: 0}
    - target: {fileID: 8736022052560050535, guid: 2b742cea3010f98448c0976eb0724a22, type: 3}
      propertyPath: m_RootOrder
      value: 12
      objectReference: {fileID: 0}
    - target: {fileID: 8736022052560050535, guid: 2b742cea3010f98448c0976eb0724a22, type: 3}
      propertyPath: m_LocalPosition.x
      value: 0
      objectReference: {fileID: 0}
    - target: {fileID: 8736022052560050535, guid: 2b742cea3010f98448c0976eb0724a22, type: 3}
      propertyPath: m_LocalPosition.y
      value: -12.08
      objectReference: {fileID: 0}
    - target: {fileID: 8736022052560050535, guid: 2b742cea3010f98448c0976eb0724a22, type: 3}
      propertyPath: m_LocalPosition.z
      value: 33.7
      objectReference: {fileID: 0}
    - target: {fileID: 8736022052560050535, guid: 2b742cea3010f98448c0976eb0724a22, type: 3}
      propertyPath: m_LocalRotation.w
      value: 1
      objectReference: {fileID: 0}
    - target: {fileID: 8736022052560050535, guid: 2b742cea3010f98448c0976eb0724a22, type: 3}
      propertyPath: m_LocalRotation.x
      value: 0
      objectReference: {fileID: 0}
    - target: {fileID: 8736022052560050535, guid: 2b742cea3010f98448c0976eb0724a22, type: 3}
      propertyPath: m_LocalRotation.y
      value: 0
      objectReference: {fileID: 0}
    - target: {fileID: 8736022052560050535, guid: 2b742cea3010f98448c0976eb0724a22, type: 3}
      propertyPath: m_LocalRotation.z
      value: 0
      objectReference: {fileID: 0}
    - target: {fileID: 8736022052560050535, guid: 2b742cea3010f98448c0976eb0724a22, type: 3}
      propertyPath: m_LocalEulerAnglesHint.x
      value: 0
      objectReference: {fileID: 0}
    - target: {fileID: 8736022052560050535, guid: 2b742cea3010f98448c0976eb0724a22, type: 3}
      propertyPath: m_LocalEulerAnglesHint.y
      value: 0
      objectReference: {fileID: 0}
    - target: {fileID: 8736022052560050535, guid: 2b742cea3010f98448c0976eb0724a22, type: 3}
      propertyPath: m_LocalEulerAnglesHint.z
      value: 0
      objectReference: {fileID: 0}
    m_RemovedComponents: []
  m_SourcePrefab: {fileID: 100100000, guid: 2b742cea3010f98448c0976eb0724a22, type: 3}
--- !u!1001 &1875191268275933830
PrefabInstance:
  m_ObjectHideFlags: 0
  serializedVersion: 2
  m_Modification:
    m_TransformParent: {fileID: 0}
    m_Modifications:
    - target: {fileID: 1167748281217693831, guid: 236da01a3a0ddb94399e07ecc8b36af9, type: 3}
      propertyPath: m_RootOrder
      value: 11
      objectReference: {fileID: 0}
    - target: {fileID: 1167748281217693831, guid: 236da01a3a0ddb94399e07ecc8b36af9, type: 3}
      propertyPath: m_LocalPosition.x
      value: 0
      objectReference: {fileID: 0}
    - target: {fileID: 1167748281217693831, guid: 236da01a3a0ddb94399e07ecc8b36af9, type: 3}
      propertyPath: m_LocalPosition.y
      value: -12.08
      objectReference: {fileID: 0}
    - target: {fileID: 1167748281217693831, guid: 236da01a3a0ddb94399e07ecc8b36af9, type: 3}
      propertyPath: m_LocalPosition.z
      value: 33.7
      objectReference: {fileID: 0}
    - target: {fileID: 1167748281217693831, guid: 236da01a3a0ddb94399e07ecc8b36af9, type: 3}
      propertyPath: m_LocalRotation.w
      value: 1
      objectReference: {fileID: 0}
    - target: {fileID: 1167748281217693831, guid: 236da01a3a0ddb94399e07ecc8b36af9, type: 3}
      propertyPath: m_LocalRotation.x
      value: 0
      objectReference: {fileID: 0}
    - target: {fileID: 1167748281217693831, guid: 236da01a3a0ddb94399e07ecc8b36af9, type: 3}
      propertyPath: m_LocalRotation.y
      value: 0
      objectReference: {fileID: 0}
    - target: {fileID: 1167748281217693831, guid: 236da01a3a0ddb94399e07ecc8b36af9, type: 3}
      propertyPath: m_LocalRotation.z
      value: 0
      objectReference: {fileID: 0}
    - target: {fileID: 1167748281217693831, guid: 236da01a3a0ddb94399e07ecc8b36af9, type: 3}
      propertyPath: m_LocalEulerAnglesHint.x
      value: 0
      objectReference: {fileID: 0}
    - target: {fileID: 1167748281217693831, guid: 236da01a3a0ddb94399e07ecc8b36af9, type: 3}
      propertyPath: m_LocalEulerAnglesHint.y
      value: 0
      objectReference: {fileID: 0}
    - target: {fileID: 1167748281217693831, guid: 236da01a3a0ddb94399e07ecc8b36af9, type: 3}
      propertyPath: m_LocalEulerAnglesHint.z
      value: 0
      objectReference: {fileID: 0}
    - target: {fileID: 1981439196236997181, guid: 236da01a3a0ddb94399e07ecc8b36af9, type: 3}
      propertyPath: m_Name
      value: oval_mod_tents
      objectReference: {fileID: 0}
    - target: {fileID: 1981439196236997181, guid: 236da01a3a0ddb94399e07ecc8b36af9, type: 3}
      propertyPath: m_IsActive
      value: 1
      objectReference: {fileID: 0}
    m_RemovedComponents: []
  m_SourcePrefab: {fileID: 100100000, guid: 236da01a3a0ddb94399e07ecc8b36af9, type: 3}
--- !u!1001 &2027329387281841466
PrefabInstance:
  m_ObjectHideFlags: 0
  serializedVersion: 2
  m_Modification:
    m_TransformParent: {fileID: 0}
    m_Modifications:
    - target: {fileID: 7027452236779337272, guid: bde06e7a046f3f341a9c307888b8df9a, type: 3}
      propertyPath: m_Name
      value: oval_mod_bridges
      objectReference: {fileID: 0}
    - target: {fileID: 7027452236779337272, guid: bde06e7a046f3f341a9c307888b8df9a, type: 3}
      propertyPath: m_IsActive
      value: 1
      objectReference: {fileID: 0}
    - target: {fileID: 7695902167163595906, guid: bde06e7a046f3f341a9c307888b8df9a, type: 3}
      propertyPath: m_RootOrder
      value: 8
      objectReference: {fileID: 0}
    - target: {fileID: 7695902167163595906, guid: bde06e7a046f3f341a9c307888b8df9a, type: 3}
      propertyPath: m_LocalPosition.x
      value: 0
      objectReference: {fileID: 0}
    - target: {fileID: 7695902167163595906, guid: bde06e7a046f3f341a9c307888b8df9a, type: 3}
      propertyPath: m_LocalPosition.y
      value: -12.08
      objectReference: {fileID: 0}
    - target: {fileID: 7695902167163595906, guid: bde06e7a046f3f341a9c307888b8df9a, type: 3}
      propertyPath: m_LocalPosition.z
      value: 33.7
      objectReference: {fileID: 0}
    - target: {fileID: 7695902167163595906, guid: bde06e7a046f3f341a9c307888b8df9a, type: 3}
      propertyPath: m_LocalRotation.w
      value: 1
      objectReference: {fileID: 0}
    - target: {fileID: 7695902167163595906, guid: bde06e7a046f3f341a9c307888b8df9a, type: 3}
      propertyPath: m_LocalRotation.x
      value: 0
      objectReference: {fileID: 0}
    - target: {fileID: 7695902167163595906, guid: bde06e7a046f3f341a9c307888b8df9a, type: 3}
      propertyPath: m_LocalRotation.y
      value: 0
      objectReference: {fileID: 0}
    - target: {fileID: 7695902167163595906, guid: bde06e7a046f3f341a9c307888b8df9a, type: 3}
      propertyPath: m_LocalRotation.z
      value: 0
      objectReference: {fileID: 0}
    - target: {fileID: 7695902167163595906, guid: bde06e7a046f3f341a9c307888b8df9a, type: 3}
      propertyPath: m_LocalEulerAnglesHint.x
      value: 0
      objectReference: {fileID: 0}
    - target: {fileID: 7695902167163595906, guid: bde06e7a046f3f341a9c307888b8df9a, type: 3}
      propertyPath: m_LocalEulerAnglesHint.y
      value: 0
      objectReference: {fileID: 0}
    - target: {fileID: 7695902167163595906, guid: bde06e7a046f3f341a9c307888b8df9a, type: 3}
      propertyPath: m_LocalEulerAnglesHint.z
      value: 0
      objectReference: {fileID: 0}
    m_RemovedComponents: []
  m_SourcePrefab: {fileID: 100100000, guid: bde06e7a046f3f341a9c307888b8df9a, type: 3}
--- !u!1001 &2182490052355805591
PrefabInstance:
  m_ObjectHideFlags: 0
  serializedVersion: 2
  m_Modification:
    m_TransformParent: {fileID: 0}
    m_Modifications:
    - target: {fileID: 4025225445679518885, guid: 27e8bc534fb9c974fa4da2c0a43518fd, type: 3}
      propertyPath: m_RootOrder
      value: 13
      objectReference: {fileID: 0}
    - target: {fileID: 4025225445679518885, guid: 27e8bc534fb9c974fa4da2c0a43518fd, type: 3}
      propertyPath: m_LocalPosition.x
      value: 0
      objectReference: {fileID: 0}
    - target: {fileID: 4025225445679518885, guid: 27e8bc534fb9c974fa4da2c0a43518fd, type: 3}
      propertyPath: m_LocalPosition.y
      value: -12.08
      objectReference: {fileID: 0}
    - target: {fileID: 4025225445679518885, guid: 27e8bc534fb9c974fa4da2c0a43518fd, type: 3}
      propertyPath: m_LocalPosition.z
      value: 33.7
      objectReference: {fileID: 0}
    - target: {fileID: 4025225445679518885, guid: 27e8bc534fb9c974fa4da2c0a43518fd, type: 3}
      propertyPath: m_LocalRotation.w
      value: 1
      objectReference: {fileID: 0}
    - target: {fileID: 4025225445679518885, guid: 27e8bc534fb9c974fa4da2c0a43518fd, type: 3}
      propertyPath: m_LocalRotation.x
      value: 0
      objectReference: {fileID: 0}
    - target: {fileID: 4025225445679518885, guid: 27e8bc534fb9c974fa4da2c0a43518fd, type: 3}
      propertyPath: m_LocalRotation.y
      value: 0
      objectReference: {fileID: 0}
    - target: {fileID: 4025225445679518885, guid: 27e8bc534fb9c974fa4da2c0a43518fd, type: 3}
      propertyPath: m_LocalRotation.z
      value: 0
      objectReference: {fileID: 0}
    - target: {fileID: 4025225445679518885, guid: 27e8bc534fb9c974fa4da2c0a43518fd, type: 3}
      propertyPath: m_LocalEulerAnglesHint.x
      value: 0
      objectReference: {fileID: 0}
    - target: {fileID: 4025225445679518885, guid: 27e8bc534fb9c974fa4da2c0a43518fd, type: 3}
      propertyPath: m_LocalEulerAnglesHint.y
      value: 0
      objectReference: {fileID: 0}
    - target: {fileID: 4025225445679518885, guid: 27e8bc534fb9c974fa4da2c0a43518fd, type: 3}
      propertyPath: m_LocalEulerAnglesHint.z
      value: 0
      objectReference: {fileID: 0}
    - target: {fileID: 4366144850234904095, guid: 27e8bc534fb9c974fa4da2c0a43518fd, type: 3}
      propertyPath: m_Name
      value: oval_mod_buildings
      objectReference: {fileID: 0}
    - target: {fileID: 4366144850234904095, guid: 27e8bc534fb9c974fa4da2c0a43518fd, type: 3}
      propertyPath: m_IsActive
      value: 1
      objectReference: {fileID: 0}
    m_RemovedComponents: []
  m_SourcePrefab: {fileID: 100100000, guid: 27e8bc534fb9c974fa4da2c0a43518fd, type: 3}
--- !u!1001 &2537519503984457022
PrefabInstance:
  m_ObjectHideFlags: 0
  serializedVersion: 2
  m_Modification:
    m_TransformParent: {fileID: 0}
    m_Modifications:
    - target: {fileID: 259541758162778781, guid: cbf79babae678474692ba1856eb21d5f, type: 3}
      propertyPath: m_RootOrder
      value: 0
      objectReference: {fileID: 0}
    - target: {fileID: 259541758162778781, guid: cbf79babae678474692ba1856eb21d5f, type: 3}
      propertyPath: m_LocalPosition.x
      value: 0
      objectReference: {fileID: 0}
    - target: {fileID: 259541758162778781, guid: cbf79babae678474692ba1856eb21d5f, type: 3}
      propertyPath: m_LocalPosition.y
      value: -12.08
      objectReference: {fileID: 0}
    - target: {fileID: 259541758162778781, guid: cbf79babae678474692ba1856eb21d5f, type: 3}
      propertyPath: m_LocalPosition.z
      value: 33.7
      objectReference: {fileID: 0}
    - target: {fileID: 259541758162778781, guid: cbf79babae678474692ba1856eb21d5f, type: 3}
      propertyPath: m_LocalRotation.w
      value: 1
      objectReference: {fileID: 0}
    - target: {fileID: 259541758162778781, guid: cbf79babae678474692ba1856eb21d5f, type: 3}
      propertyPath: m_LocalRotation.x
      value: 0.000000021855694
      objectReference: {fileID: 0}
    - target: {fileID: 259541758162778781, guid: cbf79babae678474692ba1856eb21d5f, type: 3}
      propertyPath: m_LocalRotation.y
      value: -0
      objectReference: {fileID: 0}
    - target: {fileID: 259541758162778781, guid: cbf79babae678474692ba1856eb21d5f, type: 3}
      propertyPath: m_LocalRotation.z
      value: -0
      objectReference: {fileID: 0}
    - target: {fileID: 259541758162778781, guid: cbf79babae678474692ba1856eb21d5f, type: 3}
      propertyPath: m_LocalEulerAnglesHint.x
      value: 0
      objectReference: {fileID: 0}
    - target: {fileID: 259541758162778781, guid: cbf79babae678474692ba1856eb21d5f, type: 3}
      propertyPath: m_LocalEulerAnglesHint.y
      value: 0
      objectReference: {fileID: 0}
    - target: {fileID: 259541758162778781, guid: cbf79babae678474692ba1856eb21d5f, type: 3}
      propertyPath: m_LocalEulerAnglesHint.z
      value: 0
      objectReference: {fileID: 0}
    - target: {fileID: 635503934028144679, guid: cbf79babae678474692ba1856eb21d5f, type: 3}
      propertyPath: m_Name
      value: oval_mod_lines
      objectReference: {fileID: 0}
    - target: {fileID: 635503934028144679, guid: cbf79babae678474692ba1856eb21d5f, type: 3}
      propertyPath: m_IsActive
      value: 1
      objectReference: {fileID: 0}
    m_RemovedComponents: []
  m_SourcePrefab: {fileID: 100100000, guid: cbf79babae678474692ba1856eb21d5f, type: 3}
--- !u!1001 &4973060994101731812
PrefabInstance:
  m_ObjectHideFlags: 0
  serializedVersion: 2
  m_Modification:
    m_TransformParent: {fileID: 0}
    m_Modifications:
    - target: {fileID: 4030329975700596570, guid: 75b153afc116e8c4b83693a9bbf7f515, type: 3}
      propertyPath: m_Name
      value: oval_mod_tyres
      objectReference: {fileID: 0}
    - target: {fileID: 4030329975700596570, guid: 75b153afc116e8c4b83693a9bbf7f515, type: 3}
      propertyPath: m_IsActive
      value: 1
      objectReference: {fileID: 0}
    - target: {fileID: 4369981953471839712, guid: 75b153afc116e8c4b83693a9bbf7f515, type: 3}
      propertyPath: m_RootOrder
      value: 6
      objectReference: {fileID: 0}
    - target: {fileID: 4369981953471839712, guid: 75b153afc116e8c4b83693a9bbf7f515, type: 3}
      propertyPath: m_LocalPosition.x
      value: 0
      objectReference: {fileID: 0}
    - target: {fileID: 4369981953471839712, guid: 75b153afc116e8c4b83693a9bbf7f515, type: 3}
      propertyPath: m_LocalPosition.y
      value: -12.08
      objectReference: {fileID: 0}
    - target: {fileID: 4369981953471839712, guid: 75b153afc116e8c4b83693a9bbf7f515, type: 3}
      propertyPath: m_LocalPosition.z
      value: 33.7
      objectReference: {fileID: 0}
    - target: {fileID: 4369981953471839712, guid: 75b153afc116e8c4b83693a9bbf7f515, type: 3}
      propertyPath: m_LocalRotation.w
      value: 1
      objectReference: {fileID: 0}
    - target: {fileID: 4369981953471839712, guid: 75b153afc116e8c4b83693a9bbf7f515, type: 3}
      propertyPath: m_LocalRotation.x
      value: 0
      objectReference: {fileID: 0}
    - target: {fileID: 4369981953471839712, guid: 75b153afc116e8c4b83693a9bbf7f515, type: 3}
      propertyPath: m_LocalRotation.y
      value: 0
      objectReference: {fileID: 0}
    - target: {fileID: 4369981953471839712, guid: 75b153afc116e8c4b83693a9bbf7f515, type: 3}
      propertyPath: m_LocalRotation.z
      value: 0
      objectReference: {fileID: 0}
    - target: {fileID: 4369981953471839712, guid: 75b153afc116e8c4b83693a9bbf7f515, type: 3}
      propertyPath: m_LocalEulerAnglesHint.x
      value: 0
      objectReference: {fileID: 0}
    - target: {fileID: 4369981953471839712, guid: 75b153afc116e8c4b83693a9bbf7f515, type: 3}
      propertyPath: m_LocalEulerAnglesHint.y
      value: 0
      objectReference: {fileID: 0}
    - target: {fileID: 4369981953471839712, guid: 75b153afc116e8c4b83693a9bbf7f515, type: 3}
      propertyPath: m_LocalEulerAnglesHint.z
      value: 0
      objectReference: {fileID: 0}
    m_RemovedComponents: []
  m_SourcePrefab: {fileID: 100100000, guid: 75b153afc116e8c4b83693a9bbf7f515, type: 3}
--- !u!1001 &5029537156919747304
PrefabInstance:
  m_ObjectHideFlags: 0
  serializedVersion: 2
  m_Modification:
    m_TransformParent: {fileID: 0}
    m_Modifications:
    - target: {fileID: 5798724189896924608, guid: a3ce4271597121f44869d10a0a567d64, type: 3}
      propertyPath: m_RootOrder
      value: 14
      objectReference: {fileID: 0}
    - target: {fileID: 5798724189896924608, guid: a3ce4271597121f44869d10a0a567d64, type: 3}
      propertyPath: m_LocalPosition.x
      value: 0
      objectReference: {fileID: 0}
    - target: {fileID: 5798724189896924608, guid: a3ce4271597121f44869d10a0a567d64, type: 3}
      propertyPath: m_LocalPosition.y
      value: -12.08
      objectReference: {fileID: 0}
    - target: {fileID: 5798724189896924608, guid: a3ce4271597121f44869d10a0a567d64, type: 3}
      propertyPath: m_LocalPosition.z
      value: 33.7
      objectReference: {fileID: 0}
    - target: {fileID: 5798724189896924608, guid: a3ce4271597121f44869d10a0a567d64, type: 3}
      propertyPath: m_LocalRotation.w
      value: 1
      objectReference: {fileID: 0}
    - target: {fileID: 5798724189896924608, guid: a3ce4271597121f44869d10a0a567d64, type: 3}
      propertyPath: m_LocalRotation.x
      value: 0
      objectReference: {fileID: 0}
    - target: {fileID: 5798724189896924608, guid: a3ce4271597121f44869d10a0a567d64, type: 3}
      propertyPath: m_LocalRotation.y
      value: 0
      objectReference: {fileID: 0}
    - target: {fileID: 5798724189896924608, guid: a3ce4271597121f44869d10a0a567d64, type: 3}
      propertyPath: m_LocalRotation.z
      value: 0
      objectReference: {fileID: 0}
    - target: {fileID: 5798724189896924608, guid: a3ce4271597121f44869d10a0a567d64, type: 3}
      propertyPath: m_LocalEulerAnglesHint.x
      value: 0
      objectReference: {fileID: 0}
    - target: {fileID: 5798724189896924608, guid: a3ce4271597121f44869d10a0a567d64, type: 3}
      propertyPath: m_LocalEulerAnglesHint.y
      value: 0
      objectReference: {fileID: 0}
    - target: {fileID: 5798724189896924608, guid: a3ce4271597121f44869d10a0a567d64, type: 3}
      propertyPath: m_LocalEulerAnglesHint.z
      value: 0
      objectReference: {fileID: 0}
    - target: {fileID: 6571565774580025210, guid: a3ce4271597121f44869d10a0a567d64, type: 3}
      propertyPath: m_Name
      value: oval_complete_colliders
      objectReference: {fileID: 0}
    - target: {fileID: 6571565774580025210, guid: a3ce4271597121f44869d10a0a567d64, type: 3}
      propertyPath: m_IsActive
      value: 1
      objectReference: {fileID: 0}
    m_RemovedComponents: []
  m_SourcePrefab: {fileID: 100100000, guid: a3ce4271597121f44869d10a0a567d64, type: 3}
--- !u!1001 &5231773952163153076
PrefabInstance:
  m_ObjectHideFlags: 0
  serializedVersion: 2
  m_Modification:
    m_TransformParent: {fileID: 0}
    m_Modifications:
    - target: {fileID: 8433130598519126535, guid: cae49809804330a498981fb4fd11d70e, type: 3}
      propertyPath: m_RootOrder
      value: 4
      objectReference: {fileID: 0}
    - target: {fileID: 8433130598519126535, guid: cae49809804330a498981fb4fd11d70e, type: 3}
      propertyPath: m_LocalPosition.x
      value: 0
      objectReference: {fileID: 0}
    - target: {fileID: 8433130598519126535, guid: cae49809804330a498981fb4fd11d70e, type: 3}
      propertyPath: m_LocalPosition.y
      value: -12.08
      objectReference: {fileID: 0}
    - target: {fileID: 8433130598519126535, guid: cae49809804330a498981fb4fd11d70e, type: 3}
      propertyPath: m_LocalPosition.z
      value: 33.7
      objectReference: {fileID: 0}
    - target: {fileID: 8433130598519126535, guid: cae49809804330a498981fb4fd11d70e, type: 3}
      propertyPath: m_LocalRotation.w
      value: 1
      objectReference: {fileID: 0}
    - target: {fileID: 8433130598519126535, guid: cae49809804330a498981fb4fd11d70e, type: 3}
      propertyPath: m_LocalRotation.x
      value: 0
      objectReference: {fileID: 0}
    - target: {fileID: 8433130598519126535, guid: cae49809804330a498981fb4fd11d70e, type: 3}
      propertyPath: m_LocalRotation.y
      value: 0
      objectReference: {fileID: 0}
    - target: {fileID: 8433130598519126535, guid: cae49809804330a498981fb4fd11d70e, type: 3}
      propertyPath: m_LocalRotation.z
      value: 0
      objectReference: {fileID: 0}
    - target: {fileID: 8433130598519126535, guid: cae49809804330a498981fb4fd11d70e, type: 3}
      propertyPath: m_LocalEulerAnglesHint.x
      value: 0
      objectReference: {fileID: 0}
    - target: {fileID: 8433130598519126535, guid: cae49809804330a498981fb4fd11d70e, type: 3}
      propertyPath: m_LocalEulerAnglesHint.y
      value: 0
      objectReference: {fileID: 0}
    - target: {fileID: 8433130598519126535, guid: cae49809804330a498981fb4fd11d70e, type: 3}
      propertyPath: m_LocalEulerAnglesHint.z
      value: 0
      objectReference: {fileID: 0}
    - target: {fileID: 9098308318136754365, guid: cae49809804330a498981fb4fd11d70e, type: 3}
      propertyPath: m_Name
      value: oval_mod_lamps
      objectReference: {fileID: 0}
    - target: {fileID: 9098308318136754365, guid: cae49809804330a498981fb4fd11d70e, type: 3}
      propertyPath: m_IsActive
      value: 1
      objectReference: {fileID: 0}
    m_RemovedComponents: []
  m_SourcePrefab: {fileID: 100100000, guid: cae49809804330a498981fb4fd11d70e, type: 3}
--- !u!1001 &5575043746776340544
PrefabInstance:
  m_ObjectHideFlags: 0
  serializedVersion: 2
  m_Modification:
    m_TransformParent: {fileID: 0}
    m_Modifications:
    - target: {fileID: 449833352482565534, guid: 32d5690c9db90e740bddd052e48efc2e, type: 3}
      propertyPath: m_Name
      value: oval_mod_barriers
      objectReference: {fileID: 0}
    - target: {fileID: 449833352482565534, guid: 32d5690c9db90e740bddd052e48efc2e, type: 3}
      propertyPath: m_IsActive
      value: 1
      objectReference: {fileID: 0}
    - target: {fileID: 969946965949871908, guid: 32d5690c9db90e740bddd052e48efc2e, type: 3}
      propertyPath: m_RootOrder
      value: 1
      objectReference: {fileID: 0}
    - target: {fileID: 969946965949871908, guid: 32d5690c9db90e740bddd052e48efc2e, type: 3}
      propertyPath: m_LocalPosition.x
      value: 0
      objectReference: {fileID: 0}
    - target: {fileID: 969946965949871908, guid: 32d5690c9db90e740bddd052e48efc2e, type: 3}
      propertyPath: m_LocalPosition.y
      value: -12.08
      objectReference: {fileID: 0}
    - target: {fileID: 969946965949871908, guid: 32d5690c9db90e740bddd052e48efc2e, type: 3}
      propertyPath: m_LocalPosition.z
      value: 33.7
      objectReference: {fileID: 0}
    - target: {fileID: 969946965949871908, guid: 32d5690c9db90e740bddd052e48efc2e, type: 3}
      propertyPath: m_LocalRotation.w
      value: 1
      objectReference: {fileID: 0}
    - target: {fileID: 969946965949871908, guid: 32d5690c9db90e740bddd052e48efc2e, type: 3}
      propertyPath: m_LocalRotation.x
      value: 0
      objectReference: {fileID: 0}
    - target: {fileID: 969946965949871908, guid: 32d5690c9db90e740bddd052e48efc2e, type: 3}
      propertyPath: m_LocalRotation.y
      value: 0
      objectReference: {fileID: 0}
    - target: {fileID: 969946965949871908, guid: 32d5690c9db90e740bddd052e48efc2e, type: 3}
      propertyPath: m_LocalRotation.z
      value: 0
      objectReference: {fileID: 0}
    - target: {fileID: 969946965949871908, guid: 32d5690c9db90e740bddd052e48efc2e, type: 3}
      propertyPath: m_LocalEulerAnglesHint.x
      value: 0
      objectReference: {fileID: 0}
    - target: {fileID: 969946965949871908, guid: 32d5690c9db90e740bddd052e48efc2e, type: 3}
      propertyPath: m_LocalEulerAnglesHint.y
      value: 0
      objectReference: {fileID: 0}
    - target: {fileID: 969946965949871908, guid: 32d5690c9db90e740bddd052e48efc2e, type: 3}
      propertyPath: m_LocalEulerAnglesHint.z
      value: 0
      objectReference: {fileID: 0}
    m_RemovedComponents: []
  m_SourcePrefab: {fileID: 100100000, guid: 32d5690c9db90e740bddd052e48efc2e, type: 3}
--- !u!1001 &5985644896948575869
PrefabInstance:
  m_ObjectHideFlags: 0
  serializedVersion: 2
  m_Modification:
    m_TransformParent: {fileID: 0}
    m_Modifications:
    - target: {fileID: 8252766751281143996, guid: d7c9b08657eabc54db441e4854d7996e, type: 3}
      propertyPath: m_Name
      value: oval_mod_startlights
      objectReference: {fileID: 0}
    - target: {fileID: 8252766751281143996, guid: d7c9b08657eabc54db441e4854d7996e, type: 3}
      propertyPath: m_IsActive
      value: 1
      objectReference: {fileID: 0}
    - target: {fileID: 8776503084654541318, guid: d7c9b08657eabc54db441e4854d7996e, type: 3}
      propertyPath: m_RootOrder
      value: 10
      objectReference: {fileID: 0}
    - target: {fileID: 8776503084654541318, guid: d7c9b08657eabc54db441e4854d7996e, type: 3}
      propertyPath: m_LocalPosition.x
      value: 0
      objectReference: {fileID: 0}
    - target: {fileID: 8776503084654541318, guid: d7c9b08657eabc54db441e4854d7996e, type: 3}
      propertyPath: m_LocalPosition.y
      value: -12.08
      objectReference: {fileID: 0}
    - target: {fileID: 8776503084654541318, guid: d7c9b08657eabc54db441e4854d7996e, type: 3}
      propertyPath: m_LocalPosition.z
      value: 33.7
      objectReference: {fileID: 0}
    - target: {fileID: 8776503084654541318, guid: d7c9b08657eabc54db441e4854d7996e, type: 3}
      propertyPath: m_LocalRotation.w
      value: 1
      objectReference: {fileID: 0}
    - target: {fileID: 8776503084654541318, guid: d7c9b08657eabc54db441e4854d7996e, type: 3}
      propertyPath: m_LocalRotation.x
      value: 0
      objectReference: {fileID: 0}
    - target: {fileID: 8776503084654541318, guid: d7c9b08657eabc54db441e4854d7996e, type: 3}
      propertyPath: m_LocalRotation.y
      value: 0
      objectReference: {fileID: 0}
    - target: {fileID: 8776503084654541318, guid: d7c9b08657eabc54db441e4854d7996e, type: 3}
      propertyPath: m_LocalRotation.z
      value: 0
      objectReference: {fileID: 0}
    - target: {fileID: 8776503084654541318, guid: d7c9b08657eabc54db441e4854d7996e, type: 3}
      propertyPath: m_LocalEulerAnglesHint.x
      value: 0
      objectReference: {fileID: 0}
    - target: {fileID: 8776503084654541318, guid: d7c9b08657eabc54db441e4854d7996e, type: 3}
      propertyPath: m_LocalEulerAnglesHint.y
      value: 0
      objectReference: {fileID: 0}
    - target: {fileID: 8776503084654541318, guid: d7c9b08657eabc54db441e4854d7996e, type: 3}
      propertyPath: m_LocalEulerAnglesHint.z
      value: 0
      objectReference: {fileID: 0}
    m_RemovedComponents: []
  m_SourcePrefab: {fileID: 100100000, guid: d7c9b08657eabc54db441e4854d7996e, type: 3}
--- !u!1001 &7388757692960018452
PrefabInstance:
  m_ObjectHideFlags: 0
  serializedVersion: 2
  m_Modification:
    m_TransformParent: {fileID: 0}
    m_Modifications:
    - target: {fileID: 5926851515273749033, guid: f3b91a1b9d3bd0f41af30fd573263395, type: 3}
      propertyPath: m_Name
      value: oval_mod_blocks
      objectReference: {fileID: 0}
    - target: {fileID: 5926851515273749033, guid: f3b91a1b9d3bd0f41af30fd573263395, type: 3}
      propertyPath: m_IsActive
      value: 1
      objectReference: {fileID: 0}
    - target: {fileID: 6416425098950015123, guid: f3b91a1b9d3bd0f41af30fd573263395, type: 3}
      propertyPath: m_RootOrder
      value: 7
      objectReference: {fileID: 0}
    - target: {fileID: 6416425098950015123, guid: f3b91a1b9d3bd0f41af30fd573263395, type: 3}
      propertyPath: m_LocalPosition.x
      value: 0
      objectReference: {fileID: 0}
    - target: {fileID: 6416425098950015123, guid: f3b91a1b9d3bd0f41af30fd573263395, type: 3}
      propertyPath: m_LocalPosition.y
      value: -12.08
      objectReference: {fileID: 0}
    - target: {fileID: 6416425098950015123, guid: f3b91a1b9d3bd0f41af30fd573263395, type: 3}
      propertyPath: m_LocalPosition.z
      value: 33.7
      objectReference: {fileID: 0}
    - target: {fileID: 6416425098950015123, guid: f3b91a1b9d3bd0f41af30fd573263395, type: 3}
      propertyPath: m_LocalRotation.w
      value: 1
      objectReference: {fileID: 0}
    - target: {fileID: 6416425098950015123, guid: f3b91a1b9d3bd0f41af30fd573263395, type: 3}
      propertyPath: m_LocalRotation.x
      value: 0
      objectReference: {fileID: 0}
    - target: {fileID: 6416425098950015123, guid: f3b91a1b9d3bd0f41af30fd573263395, type: 3}
      propertyPath: m_LocalRotation.y
      value: 0
      objectReference: {fileID: 0}
    - target: {fileID: 6416425098950015123, guid: f3b91a1b9d3bd0f41af30fd573263395, type: 3}
      propertyPath: m_LocalRotation.z
      value: 0
      objectReference: {fileID: 0}
    - target: {fileID: 6416425098950015123, guid: f3b91a1b9d3bd0f41af30fd573263395, type: 3}
      propertyPath: m_LocalEulerAnglesHint.x
      value: 0
      objectReference: {fileID: 0}
    - target: {fileID: 6416425098950015123, guid: f3b91a1b9d3bd0f41af30fd573263395, type: 3}
      propertyPath: m_LocalEulerAnglesHint.y
      value: 0
      objectReference: {fileID: 0}
    - target: {fileID: 6416425098950015123, guid: f3b91a1b9d3bd0f41af30fd573263395, type: 3}
      propertyPath: m_LocalEulerAnglesHint.z
      value: 0
      objectReference: {fileID: 0}
    m_RemovedComponents: []
  m_SourcePrefab: {fileID: 100100000, guid: f3b91a1b9d3bd0f41af30fd573263395, type: 3}
--- !u!1001 &8109261745373479568
PrefabInstance:
  m_ObjectHideFlags: 0
  serializedVersion: 2
  m_Modification:
    m_TransformParent: {fileID: 0}
    m_Modifications:
    - target: {fileID: 4844194986776640705, guid: 0272d5b08108c7543b70c3ccbcd7249c, type: 3}
      propertyPath: m_RootOrder
      value: 16
      objectReference: {fileID: 0}
    - target: {fileID: 4844194986776640705, guid: 0272d5b08108c7543b70c3ccbcd7249c, type: 3}
      propertyPath: m_LocalPosition.x
      value: 0
      objectReference: {fileID: 0}
    - target: {fileID: 4844194986776640705, guid: 0272d5b08108c7543b70c3ccbcd7249c, type: 3}
      propertyPath: m_LocalPosition.y
      value: -12.08
      objectReference: {fileID: 0}
    - target: {fileID: 4844194986776640705, guid: 0272d5b08108c7543b70c3ccbcd7249c, type: 3}
      propertyPath: m_LocalPosition.z
      value: 33.7
      objectReference: {fileID: 0}
    - target: {fileID: 4844194986776640705, guid: 0272d5b08108c7543b70c3ccbcd7249c, type: 3}
      propertyPath: m_LocalRotation.w
      value: 1
      objectReference: {fileID: 0}
    - target: {fileID: 4844194986776640705, guid: 0272d5b08108c7543b70c3ccbcd7249c, type: 3}
      propertyPath: m_LocalRotation.x
      value: 0
      objectReference: {fileID: 0}
    - target: {fileID: 4844194986776640705, guid: 0272d5b08108c7543b70c3ccbcd7249c, type: 3}
      propertyPath: m_LocalRotation.y
      value: 0
      objectReference: {fileID: 0}
    - target: {fileID: 4844194986776640705, guid: 0272d5b08108c7543b70c3ccbcd7249c, type: 3}
      propertyPath: m_LocalRotation.z
      value: 0
      objectReference: {fileID: 0}
    - target: {fileID: 4844194986776640705, guid: 0272d5b08108c7543b70c3ccbcd7249c, type: 3}
      propertyPath: m_LocalEulerAnglesHint.x
      value: 0
      objectReference: {fileID: 0}
    - target: {fileID: 4844194986776640705, guid: 0272d5b08108c7543b70c3ccbcd7249c, type: 3}
      propertyPath: m_LocalEulerAnglesHint.y
      value: 0
      objectReference: {fileID: 0}
    - target: {fileID: 4844194986776640705, guid: 0272d5b08108c7543b70c3ccbcd7249c, type: 3}
      propertyPath: m_LocalEulerAnglesHint.z
      value: 0
      objectReference: {fileID: 0}
    - target: {fileID: 5220192038653060731, guid: 0272d5b08108c7543b70c3ccbcd7249c, type: 3}
      propertyPath: m_Name
      value: oval_mod_terrain
      objectReference: {fileID: 0}
    m_RemovedComponents: []
  m_SourcePrefab: {fileID: 100100000, guid: 0272d5b08108c7543b70c3ccbcd7249c, type: 3}
--- !u!1001 &8744843216901521086
PrefabInstance:
  m_ObjectHideFlags: 0
  serializedVersion: 2
  m_Modification:
    m_TransformParent: {fileID: 0}
    m_Modifications:
    - target: {fileID: 2639911455080084039, guid: 29941f1cf302e7c4fb5a208f889be20e, type: 3}
      propertyPath: m_RootOrder
      value: 5
      objectReference: {fileID: 0}
    - target: {fileID: 2639911455080084039, guid: 29941f1cf302e7c4fb5a208f889be20e, type: 3}
      propertyPath: m_LocalPosition.x
      value: 0
      objectReference: {fileID: 0}
    - target: {fileID: 2639911455080084039, guid: 29941f1cf302e7c4fb5a208f889be20e, type: 3}
      propertyPath: m_LocalPosition.y
      value: -12.08
      objectReference: {fileID: 0}
    - target: {fileID: 2639911455080084039, guid: 29941f1cf302e7c4fb5a208f889be20e, type: 3}
      propertyPath: m_LocalPosition.z
      value: 33.7
      objectReference: {fileID: 0}
    - target: {fileID: 2639911455080084039, guid: 29941f1cf302e7c4fb5a208f889be20e, type: 3}
      propertyPath: m_LocalRotation.w
      value: 1
      objectReference: {fileID: 0}
    - target: {fileID: 2639911455080084039, guid: 29941f1cf302e7c4fb5a208f889be20e, type: 3}
      propertyPath: m_LocalRotation.x
      value: 0
      objectReference: {fileID: 0}
    - target: {fileID: 2639911455080084039, guid: 29941f1cf302e7c4fb5a208f889be20e, type: 3}
      propertyPath: m_LocalRotation.y
      value: 0
      objectReference: {fileID: 0}
    - target: {fileID: 2639911455080084039, guid: 29941f1cf302e7c4fb5a208f889be20e, type: 3}
      propertyPath: m_LocalRotation.z
      value: 0
      objectReference: {fileID: 0}
    - target: {fileID: 2639911455080084039, guid: 29941f1cf302e7c4fb5a208f889be20e, type: 3}
      propertyPath: m_LocalEulerAnglesHint.x
      value: 0
      objectReference: {fileID: 0}
    - target: {fileID: 2639911455080084039, guid: 29941f1cf302e7c4fb5a208f889be20e, type: 3}
      propertyPath: m_LocalEulerAnglesHint.y
      value: 0
      objectReference: {fileID: 0}
    - target: {fileID: 2639911455080084039, guid: 29941f1cf302e7c4fb5a208f889be20e, type: 3}
      propertyPath: m_LocalEulerAnglesHint.z
      value: 0
      objectReference: {fileID: 0}
    - target: {fileID: 3452301412073482493, guid: 29941f1cf302e7c4fb5a208f889be20e, type: 3}
      propertyPath: m_Name
      value: oval_mod_seats
      objectReference: {fileID: 0}
    - target: {fileID: 3452301412073482493, guid: 29941f1cf302e7c4fb5a208f889be20e, type: 3}
      propertyPath: m_IsActive
      value: 1
      objectReference: {fileID: 0}
    m_RemovedComponents: []
  m_SourcePrefab: {fileID: 100100000, guid: 29941f1cf302e7c4fb5a208f889be20e, type: 3}
